tim.c:63:6:MX_TIM1_Init	56	static
tim.c:132:6:HAL_TIM_Encoder_MspInit	32	static
tim.c:161:6:HAL_TIM_PWM_MspInit	8	static
tim.c:176:6:HAL_TIM_MspPostInit	32	static
tim.c:97:6:MX_TIM3_Init	48	static
tim.c:203:6:HAL_TIM_Encoder_MspDeInit	0	static
tim.c:226:6:HAL_TIM_PWM_MspDeInit	0	static
