mk_menu.c:135:13:display_nodes	40	static
mk_menu.c:122:13:prepare_menu_branch.isra.0	24	static
mk_menu.c:232:13:mk_menu	32	static
mk_menu.c:38:6:register_timeout_counter_ptr	0	static
mk_menu.c:46:6:register_execute_node_fun_callback	0	static
mk_menu.c:54:6:register_menu_node_callback	0	static
mk_menu.c:62:6:register_menu_branch_callback	0	static
mk_menu.c:70:6:register_reset_controller_pos_callback	0	static
mk_menu.c:75:9:get_first_node	0	static
mk_menu.c:79:9:get_current_node	0	static
mk_menu.c:83:8:get_current_node_title	0	static
mk_menu.c:87:8:get_node_title	0	static
mk_menu.c:91:9:get_next_node	0	static
mk_menu.c:96:9:get_prev_node	0	static
mk_menu.c:101:6:set_current_node	0	static
mk_menu.c:105:8:get_node_property_idx	0	static
mk_menu.c:109:8:get_actual_property_idx	0	static
mk_menu.c:114:9:is_menu_on	0	static
mk_menu.c:366:6:mk_menu_inc	8	static
mk_menu.c:374:6:mk_menu_dec	8	static
mk_menu.c:382:6:mk_menu_click	0	static
mk_menu.c:386:6:mk_menu_toggle	0	static
mk_menu.c:391:6:mk_menu_hide	0	static
